<svg xmlns="http://www.w3.org/2000/svg" xmlns:xlink="http://www.w3.org/1999/xlink" xmlns:ev="http://www.w3.org/2001/xml-events"
		xmlns:v="http://schemas.microsoft.com/visio/2003/SVGExtensions/" width="4.96501in" height="2.35484in"
		viewBox="0 0 357.481 169.549" xml:space="preserve" color-interpolation-filters="sRGB" class="st2">


	<linearGradient id="anim"  fy="0">
      <stop offset="0" stop-color="#148F01">
		</stop>
		<stop offset=".7" stop-color="#46DF04">
		</stop>
    </linearGradient>
    

		<g id="shape1-1" v:mID="1" v:groupContext="shape" transform="translate(0.375,-0.375)">
			<title>Sheet.1</title>
			<path fill="url(#anim)" stroke='rgba(49,163,0,0.7)'  d="M40.81 0.75 L356.73 0.75 L356.73 46.1 L317.18 46.1 L317.18 109.88 L168.36 109.88 L168.36 138.23 L136.36 138.23
						 L136.36 169.55 L17.03 169.55 L0 152.52 L0 34.67 L40.81 0.75 Z" class="st1"/>
		</g>
</svg>
