<svg version="1.1"
	 id="Layer_1" xmlns:v="http://schemas.microsoft.com/visio/2003/SVGExtensions/" xmlns:ev="http://www.w3.org/2001/xml-events"
	 xmlns="http://www.w3.org/2000/svg" xmlns:xlink="http://www.w3.org/1999/xlink" x="0px" y="0px" width="92.402px"
	 height="45.354px" viewBox="18.244 18.555 92.402 45.354" enable-background="new 18.244 18.555 92.402 45.354"
	 xml:space="preserve">
	 
	 	<linearGradient id="anim"  x1="0%" y1="100%">
      <stop offset="0%" stop-color="red" stop-opacity="1">
      		<animate attributeName="stop-color" 
      			values="red;rgba(255,0,0,0.3);red" dur="0ms" repeatCount="indefinite"/>
		</stop>
    </linearGradient>
<g>
	<g id="shape1-1" transform="translate(18.24,-27.1489)">
		<path fill="url(#anim)" d="M92.405,68.066c0.18,12.53-9.84,22.82-22.36,22.99c-5.77,0.08-11.07-2-15.12-5.5v2.35h-15.74v-6.07H0.004
			v-34.02h18.7v8.51h20.48v-8.1h15.74v2.99c4.05-3.5,9.351-5.59,15.12-5.51C82.325,45.876,92.235,55.796,92.405,68.066z" >
					
        
        </path>
	</g>
</g>
</svg>
