<svg xmlns="http://www.w3.org/2000/svg" xmlns:xlink="http://www.w3.org/1999/xlink" xmlns:ev="http://www.w3.org/2001/xml-events"
		xmlns:v="http://schemas.microsoft.com/visio/2003/SVGExtensions/" width="10.0394in" height="5.31496in"
		viewBox="0 0 722.835 382.677" xml:space="preserve" color-interpolation-filters="sRGB" class="st2">
	<v:documentProperties v:langID="1042" v:metric="true" v:viewMarkup="false">
		<v:userDefs>
			<v:ud v:nameU="msvNoAutoConnect" v:val="VT0(1):26"/>
		</v:userDefs>
	</v:documentProperties>

	<style type="text/css">
	<![CDATA[
		.st1 {fill:#ffff00;stroke:none;stroke-linecap:round;stroke-linejoin:round;stroke-width:0.749999}
		.st2 {fill:none;fill-rule:evenodd;font-size:12px;overflow:visible;stroke-linecap:square;stroke-miterlimit:3}
	]]>
	</style>
	 <linearGradient id="anim"  x1="0%" y1="100%">
      <stop offset="0%" stop-color="#C7C402" stop-opacity="1">
		<animate attributeName="stop-color"
		values="#C7C402;#FEFE82;#C7C402" dur="500ms" repeatCount="indefinite"/>
		</stop>
    </linearGradient>

	<g v:mID="0" v:index="1" v:groupContext="foregroundPage">
		<title>Page-1</title>
		<v:pageProperties v:drawingScale="0.0393701" v:pageScale="0.0393701" v:drawingUnits="24" v:shadowOffsetX="9"
				v:shadowOffsetY="-9"/>
		<g id="group1-1" transform="translate(18.9697,-14.3358)" v:mID="1" v:groupContext="group">
			<title>Sheet.1</title>
			<g id="group2-2" v:mID="2" v:groupContext="group">
				<title>Page-1</title>
				<g id="group3-3" v:mID="3" v:groupContext="group">
					<title>Sheet.3</title>
					<g id="group4-4" v:mID="4" v:groupContext="group">
						<title>Page-1</title>
						<g id="shape5-5" v:mID="5" v:groupContext="shape">
							<title>Sheet.5</title>
							<path d="M453.55 104.89 L686.03 104.89 L686.03 297.64 L538.59 297.64 L538.59 343 L379.85 343 L379.85
										 382.68 L158.74 382.68 L158.74 320.32 L0 320.32 L0 93.55 L96.38 93.55 L96.38 101.48 L124.73
										 101.48 L124.73 27.54 L385.51 27.54 L385.51 59.53 L453.55 59.53 L453.55 104.89 Z"
									class="st1"/>
						</g>
					</g>
				</g>
			</g>
		</g>
	</g>
</svg>
