<svg version="1.1"
	 id="Layer_1" xmlns:v="http://schemas.microsoft.com/visio/2003/SVGExtensions/" xmlns:ev="http://www.w3.org/2001/xml-events"
	 xmlns="http://www.w3.org/2000/svg" xmlns:xlink="http://www.w3.org/1999/xlink" x="0px" y="0px" width="167.527px"
	 height="52.44px" viewBox="18.24 18.241 167.527 52.44" enable-background="new 18.24 18.241 167.527 52.44" xml:space="preserve">
			<linearGradient id="anim"  x1="0%" y1="100%">
      <stop offset="0%" stop-color="red" stop-opacity="1">
      		<animate attributeName="stop-color" 
      			values="red;rgba(255,0,0,0.3);red" dur="0ms" repeatCount="indefinite"/>
		</stop>
    </linearGradient>
        
        <g transform="translate(91.9408,-42.3345)">
			<g>
				<path fill="url(#anim)"  d="M93.823,72.915v26.35c0,0.55-0.45,1-1,1h-65.75v11.75c0,0.55-0.45,1-1,1h-98.77c-0.55,0-1-0.45-1-1
					v-36.27c0-0.551,0.45-1,1-1h72.7v-13.17c0-0.55,0.45-1,1-1h36.41c0.55,0,1,0.45,1,1v10.34h54.41
					C93.372,71.915,93.823,72.365,93.823,72.915z" >
        </path>
			</g>
		</g>
</svg>
