<svg version="1.1"
	 id="Layer_1" xmlns:v="http://schemas.microsoft.com/visio/2003/SVGExtensions/" xmlns:ev="http://www.w3.org/2001/xml-events"
	 xmlns="http://www.w3.org/2000/svg" xmlns:xlink="http://www.w3.org/1999/xlink" x="0px" y="0px" width="36.72px" height="60.94px"
	 viewBox="0.244 0.242 36.72 60.94" enable-background="new 0.244 0.242 36.72 60.94" xml:space="preserve">
		<linearGradient id="anim"  x1="0%" y1="100%">
      <stop offset="0%" stop-color="#C7C402" stop-opacity="1">
		<animate attributeName="stop-color" 
		values="#C7C402;#FEFE82;#C7C402" dur="500ms" repeatCount="indefinite"/>
		</stop>
    </linearGradient>
        
		<g transform="translate(0.24,-31.4211)">
			<g>
				<path fill="url(#anim)"  d="M35.724,45.834c0.55,0,1,0.45,1,1v27.76c0,0.55-0.45,1-1,1h-3.67c-0.55,0-1,0.45-1,1v15.01
					c0,0.55-0.45,1-1,1H9.384c-0.55,0-1-0.45-1-1v-22.09c0-0.55-0.45-1-1-1h-0.84c-0.55,0-1-0.45-1-1v-5.09c0-0.55-0.45-1-1-1h-3.54
					c-0.55,0-1-0.45-1-1v-27.76c0-0.55,0.45-1,1-1h29.05c0.55,0,1,0.45,1,1v12.17c0,0.55,0.45,1,1,1H35.724z" >
        </path>
			</g>
		</g>
</svg>
