<svg version="1.1"
	 id="Layer_1" xmlns:v="http://schemas.microsoft.com/visio/2003/SVGExtensions/" xmlns:ev="http://www.w3.org/2001/xml-events"
	 xmlns="http://www.w3.org/2000/svg" xmlns:xlink="http://www.w3.org/1999/xlink" x="0px" y="0px" width="31.18px"
	 height="39.685px" viewBox="18.24 18.24 31.18 39.685" enable-background="new 18.24 18.24 31.18 39.685" xml:space="preserve">
			<linearGradient id="anim"  x1="0%" y1="100%">
      <stop offset="0%" stop-color="#C7C402" stop-opacity="1">
		<animate attributeName="stop-color" 
		values="#C7C402;#FEFE82;#C7C402" dur="500ms" repeatCount="indefinite"/>
		</stop>
    </linearGradient>
        
		<g transform="translate(18.24,-18.24)">
			<g>
				<path fill="url(#anim)"  d="M0,37.48c0-0.55,0.45-1,1-1h29.18c0.55,0,1,0.45,1,1v37.685c0,0.55-0.45,1-1,1H1c-0.55,0-1-0.45-1-1
					V37.48z" >
        </path>
			</g>
		</g>
</svg>
